{
  "designerVersion" : "1.4.34",
  "id" : "customTabsContainer",
  "name" : "tabsContainer",
  "lastUpdate" : 1542828368587,
  "template" : "<div ng-init=\"init()\">\n    <ul class=\"nav nav-tabs\">\n      <li class= '{{x.clase}}' ng-repeat=\"x in properties.participes\" ng-click=\"ctrl.activeTab($index)\"  ><a href=\"#\">{{x.etiqueta}}</a></li>\n      \n    </ul>\n</div>",
  "controller" : "/**\r\n * The controller is a JavaScript function that augments the AngularJS scope and exposes functions that can be used in the custom widget template\r\n * \r\n * Custom widget properties defined on the right can be used as variables in a controller with $scope.properties\r\n * To use AngularJS standard services, you must declare them in the main function arguments.\r\n * \r\n * You can leave the controller empty if you do not need it.\r\n */\r\nfunction ($scope) {\r\n    \r\n\r\n    $scope.init = function () {\r\n        for(var i = 0 ; i< $scope.properties.participes.length ; i++){\r\n            if(i == 0 ){\r\n                $scope.properties.participes[i].clase= 'active'\r\n            }else{\r\n                $scope.properties.participes[i].clase= 'enabled'\r\n            }\r\n       }\r\n       $scope.index = 0;\r\n    }\r\n    \r\n   this.activeTab =  function(index){\r\n       var validClic = false ; \r\n       $scope.index = index;\r\n       for(var i = 0 ; i< $scope.properties.participes.length ; i++){\r\n            if(i == index ){\r\n                if(index==0 ){\r\n                    $scope.properties.participes[i].ocultar = false;\r\n                    $scope.properties.participes[i].clase = 'active';\r\n                    validClic=true;\r\n                }else{\r\n                    if($scope.properties.participes[i-1].valido=== true){\r\n                        $scope.properties.participes[i].ocultar = false;\r\n                        $scope.properties.participes[i].clase = 'active'; \r\n                        validClic=true; \r\n                    }\r\n                }\r\n                \r\n            }\r\n       }\r\n       if(validClic === true){\r\n            for(var j = 0 ; j< $scope.properties.participes.length ; j++){\r\n                 if(j !== index ){\r\n                    $scope.properties.participes[j].ocultar = true;  \r\n                    $scope.properties.participes[j].clase= 'enabled';\r\n                    /*if($scope.properties.participes[j].valido !== true ){\r\n                        $scope.properties.participes[j].clase= 'disabled'    \r\n                    }else{\r\n                        $scope.properties.participes[j].clase= 'active'    \r\n                    }*/\r\n                    \r\n                 }\r\n                 \r\n                 \r\n            }    \r\n       }\r\n       \r\n    }\r\n    \r\n        $scope.$watch('properties.participes', function(newVal, oldVal){\r\n            \r\n        }, true);\r\n    \r\n\r\n}",
  "custom" : true,
  "properties" : [ {
    "label" : "Value",
    "name" : "value",
    "type" : "text",
    "defaultValue" : "This is the initial value",
    "bond" : "expression"
  }, {
    "label" : "participes",
    "name" : "participes",
    "caption" : "participes",
    "help" : "participes",
    "type" : "text",
    "bond" : "variable"
  } ],
  "assets" : [ {
    "id" : "0a9a77bf-ebc6-4d2b-873d-2acf5fe137c4",
    "name" : "tabs.css",
    "type" : "css",
    "order" : 1,
    "external" : false
  } ],
  "requiredModules" : [ ],
  "type" : "widget",
  "hasHelp" : false
}