{
  "designerVersion" : "1.4.34",
  "id" : "customSmartListEstrat",
  "name" : "smartListEstrat",
  "lastUpdate" : 1538517135828,
  "template" : "<div ng-controller=\"listDocumentsController as listDocuments\" ng-init=\"listDocuments.init(properties)\">\r\n\t<!-- Button trigger Modal Lista de Documentos -->\r\n\t<button type=\"button\" class=\"btn btn-primary\" ng-click=\"listDocuments.openModal('listDocumentsModal')\">\r\n\t\tConsultar Documentos\r\n\t</button>\r\n\r\n\t<!-- Modal Lista de Documentos -->\r\n\t<div class=\"modal fade\" id=\"listDocumentsModal\" tabindex=\"-1\" role=\"dialog\" aria-labelledby=\"listDocumentsModalLabel\" aria-hidden=\"true\">\r\n\t\t<div class=\"modal-dialog modal-lg\" role=\"document\">\r\n\t\t\t<div class=\"modal-content\">\r\n\t\t\t\t<div class=\"modal-header\">\r\n\t\t\t\t\t<button type=\"button\" class=\"close padding-button\" data-dismiss=\"modal\" aria-label=\"Close\">\r\n\t\t\t\t\t\t<span aria-hidden=\"true\">&times;</span>\r\n\t\t\t\t\t</button>\r\n\t\t\t\t\t<h4 class=\"modal-title\" id=\"listDocumentsModalLabel\">{{listDocuments.textButton}}</h4>\r\n\t\t\t\t</div>\r\n\t\t\t\t<div ng-if=\"listDocuments.loading\" class=\"loading-content\">\r\n\t\t\t\t\t<img src=\"widgets/customListadoDocumentos/assets/img/loading.gif\" class=\"loading\" />\r\n\t\t\t\t</div>\r\n\t\t\t\t<div ng-if=\"!listDocuments.loading\">\r\n\t\t\t\t\t<div class=\"modal-body\">\r\n\t\t\t\t\t\t<div class=\"alert alert-danger\" role=\"alert\" ng-if=\"listDocuments.error\">\r\n\t\t\t\t\t\t\t{{listDocuments.errorDesc}}\r\n\t\t\t\t\t\t</div>\r\n\r\n\t\t\t\t\t\t<div ng-if=\"!listDocuments.error\">\r\n\t\t\t\t\t\t\t<h5>\r\n\t\t\t\t\t\t\t\t<strong>Documentos solicitados</strong>\r\n\t\t\t\t\t\t\t</h5>\r\n\t\t\t\t\t\t\t<table class=\"table table-striped \">\r\n\t\t\t\t\t\t\t\t<tbody>\r\n\t\t\t\t\t\t\t\t\t<tr ng-repeat=\"document in listDocuments.listDocuments\" ng-if=\"!document.autogenerated\">\r\n\t\t\t\t\t\t\t\t\t\t<td>{{document.name}}</td>\r\n\t\t\t\t\t\t\t\t\t</tr>\r\n\t\t\t\t\t\t\t\t</tbody>\r\n\t\t\t\t\t\t\t</table>\r\n\r\n\t\t\t\t\t\t\t<hr>\r\n\r\n\t\t\t\t\t\t\t<h5>\r\n\t\t\t\t\t\t\t</h5>\r\n\t\t\t\t\t\t\t<table class=\"table table-striped \">\r\n\t\t\t\t\t\t\t\t<tbody>\r\n\t\t\t\t\t\t\t\t\t<tr ng-repeat=\"document in listDocuments.listDocuments\" ng-if=\"document.autogenerated\">\r\n\t\t\t\t\t\t\t\t\t\t<td>{{document.name}}</td>\r\n\t\t\t\t\t\t\t\t\t</tr>\r\n\t\t\t\t\t\t\t\t</tbody>\r\n\t\t\t\t\t\t\t</table>\r\n\t\t\t\t\t\t</div>\r\n\t\t\t\t\t</div>\r\n\t\t\t\t\t<div class=\"modal-footer\">\r\n\t\t\t\t\t\t<button type=\"button\" class=\"btn btn-primary\" data-dismiss=\"modal\">{{listDocuments.error ? 'Cerrar' : 'Continuar'}}</button>\r\n\t\t\t\t\t</div>\r\n\t\t\t\t</div>\r\n\t\t\t</div>\r\n\t\t</div>\r\n\t</div>\r\n</div>",
  "controller" : "function ($scope) {\n\n}",
  "custom" : true,
  "properties" : [ {
    "label" : "Base URL",
    "name" : "baseUrl",
    "help" : "URL utilizada como base para acceder al servicio",
    "type" : "text",
    "bond" : "expression"
  }, {
    "label" : "ID caso",
    "name" : "caseId",
    "help" : "Identificador del caso",
    "type" : "text",
    "bond" : "expression"
  }, {
    "label" : "documentTypeId",
    "name" : "documentTypeId",
    "help" : "documentTypeId",
    "type" : "text",
    "bond" : "expression"
  } ],
  "assets" : [ {
    "id" : "f4940cda-3c5e-4597-8cad-13264708f5cf",
    "name" : "bootstrap.css",
    "type" : "css",
    "order" : 26,
    "external" : false
  }, {
    "id" : "4d0c0996-0a8b-49d8-a13c-39cfb7fb0242",
    "name" : "bootstrap-datetimepicker.css",
    "type" : "css",
    "order" : 27,
    "external" : false
  }, {
    "id" : "19e46a24-52e4-48b3-92a2-94a05f36dc8f",
    "name" : "bootstrap-datetimepicker.js",
    "type" : "js",
    "order" : 15,
    "external" : false
  }, {
    "id" : "6d987edf-6bbe-4461-b898-edc03b07d6df",
    "name" : "appService.js",
    "type" : "js",
    "order" : 38,
    "external" : false
  }, {
    "id" : "93d93ad5-92d7-4b8d-b4a9-68ffac06460d",
    "name" : "jquery-3.3.1.slim.min.js",
    "type" : "js",
    "order" : 6,
    "external" : false
  }, {
    "id" : "212a9dc8-6447-4587-a3a9-cde7f88691a6",
    "name" : "loading.gif",
    "type" : "img",
    "order" : 34,
    "external" : false
  }, {
    "id" : "31681de0-39a3-4f90-9936-5dff6b657b8b",
    "name" : "bootstrap.js",
    "type" : "js",
    "order" : 13,
    "external" : false
  }, {
    "id" : "5b4de7db-9181-4eef-83c8-cf97fa63d4b3",
    "name" : "style.css",
    "type" : "css",
    "order" : 33,
    "external" : false
  }, {
    "id" : "fa23d2d3-ad3f-4998-8149-652443c99cd2",
    "name" : "listDocumentsController.js",
    "type" : "js",
    "order" : 36,
    "external" : false
  }, {
    "id" : "4a787947-d551-4a1e-a416-2b8d5c0203ed",
    "name" : "bootstrap-datetimepicker.es.js",
    "type" : "js",
    "order" : 17,
    "external" : false
  } ],
  "requiredModules" : [ ],
  "type" : "widget",
  "hasHelp" : false
}