{
  "designerVersion" : "1.2.9",
  "id" : "customCustomAutoComplete",
  "name" : "customAutoComplete",
  "lastUpdate" : 1541087714066,
  "template" : "<label for=\"{{ codigo }}\">{{ properties.label }}</label>\n<angucomplete-alt id=\"{{ codigo }}\"\n              placeholder=\"{{properties.placeholder}}\"\n              pause=\"300\"\n              selected-object=\"properties.tempRtn\"\n              local-data=\"properties.values\"\n              search-fields=\"{{properties.searchField}}\"\n              title-field=\"{{properties.searchField}}\"\n              minlength=\"1\"\n              text-searching=\"Buscando...\"\n              text-no-results=\"No se encontró nada :(\"\n              input-class=\"form-control\"\n              match-class=\"highlight\"\n              initial-value=\"properties.inicial\"></angucomplete-alt>",
  "controller" : "function c($scope) {\n    $scope.properties.rtn = null;\n    $scope.properties.tempRtn = null;\n    $scope.codigo = (new Date()).getTime();\n    $scope.$watch('properties.tempRtn', function(newVal, oldVal){\n        if (newVal !== null && newVal !== undefined) {\n            var fld = $scope.properties.rtnKey != null ? $scope.properties.rtnKey : $scope.properties.searchField;\n            $scope.properties.rtn = newVal.originalObject[fld];\n        } else {\n            $scope.properties.rtn = null;\n        }\n    }, true);\n}",
  "custom" : true,
  "properties" : [ {
    "label" : "Retorno",
    "name" : "rtn",
    "type" : "text",
    "bond" : "variable"
  }, {
    "label" : "Lista de valores",
    "name" : "values",
    "type" : "collection",
    "bond" : "expression"
  }, {
    "label" : "Clave de retorno",
    "name" : "rtnKey",
    "type" : "text",
    "bond" : "expression"
  }, {
    "label" : "Texto explicativo",
    "name" : "placeholder",
    "type" : "text",
    "defaultValue" : "Buscar...",
    "bond" : "interpolation"
  }, {
    "label" : "Clave de búsqueda",
    "name" : "searchField",
    "type" : "text",
    "bond" : "expression"
  }, {
    "label" : "Etiqueta",
    "name" : "label",
    "type" : "text",
    "defaultValue" : "Por defecto",
    "bond" : "interpolation"
  }, {
    "label" : "Valor inicial",
    "name" : "inicial",
    "type" : "text",
    "bond" : "expression"
  } ],
  "assets" : [ {
    "id" : "2cbb3102-c2ef-4760-be7b-593c62e26b7b",
    "name" : "angucomplete-alt.min.js",
    "type" : "js",
    "order" : 3,
    "external" : false
  }, {
    "id" : "f77c92b2-2ab1-46f0-bf2e-d82ff13be4ad",
    "name" : "angucomplete-alt.css",
    "type" : "css",
    "order" : 5,
    "external" : false
  }, {
    "id" : "0f3a2b4c-23f7-42c2-9033-e6ee425770f5",
    "name" : "autocomplete_custom.css",
    "type" : "css",
    "order" : 6,
    "external" : false
  } ],
  "requiredModules" : [ "angucomplete-alt" ],
  "type" : "widget",
  "hasHelp" : false
}