{
  "designerVersion" : "1.4.34",
  "id" : "customSwitcherButton",
  "name" : "SwitcherButton",
  "lastUpdate" : 1552076549860,
  "template" : "<div>\n    <h4>\n    <button\n        style =\"border: none;\n            padding-left: 10px;\n            padding-bottom: 0px;\n            padding-top: 0px;\n            background: none;\n            height: 40px;\"\n        class=\"btn-block bbva-light-blue-white text-left font-light\"\n        ng-click=\"ctrl.action()\"\n        type=\"submit\"\n        ng-disabled=\"properties.disabled || ctrl.busy\" ng-label=\"properties.label | uiTranslate\">\n            <label>\n                {{properties.label}}\n            </label>\n            <i style=\"float:right;\" ng-class=\"class\"></i>\n        </button>\n    </h4>\n</div>",
  "icon" : "<svg xmlns='http://www.w3.org/2000/svg' viewBox='0 0 50 20'><g><path fill='#CBD5E1' d='M47,15.2c0,0.7-1.7,1.8-1.7,1.8S4.8,17,3.7,17c-1.6,0-3.6-1.9-3.6-1.9s0.7,4.8,4,5c2.4,0.1,42.4,0,42.4,0 s3.5-0.2,3.5-3.6c0-1.3,0.1-11.5,0.1-12.4c-0.1-2-4-4-4-4L47,1.8C47,1.8,47,14.5,47,15.2z'/><path fill='#fff' d='M3.9,1h40.3C45.7,1,47,2.2,47,3.6v10.8c0,1.4-1.3,2.6-2.9,2.6H3.9C2.3,17,1,15.8,1,14.4V3.6 C1,2.2,2.3,1,3.9,1z M3,0C1.3,0,0,1.3,0,3v12c0,1.7,1.3,3,3,3h42c1.7,0,3-1.3,3-3V3c0-1.7-1.3-3-3-3H3z'/></g></svg>",
  "controller" : "function PbButtonCtrl($scope, $http, $location, $log, $window) {\n\n  'use strict';\n  \n \n    if($scope.properties.defaultOpen){\n        $scope.class = \"glyphicon glyphicon-minus\";    \n    }else{\n        $scope.class = \"glyphicon glyphicon-plus\";    \n    } \n\n\n  var vm = this;\n\n  this.action = function action() {\n    var id;\n    $scope.properties.showModal = !$scope.properties.showModal;\n    \n    $scope.class = ($scope.class === \"glyphicon glyphicon-plus\" ? \"glyphicon glyphicon-minus\" : \"glyphicon glyphicon-plus\");\n    //$scope.class = ($scope.class === \"glyphicon glyphicon-minus\" ? \"glyphicon glyphicon-plus\" : \"glyphicon glyphicon-minus\");\n  };\n  \n}\n",
  "description" : "Trigger for an action in a page or form",
  "custom" : true,
  "order" : 10,
  "properties" : [ {
    "label" : "Disabled",
    "name" : "disabled",
    "type" : "boolean",
    "defaultValue" : false,
    "bond" : "expression"
  }, {
    "label" : "Label",
    "name" : "label",
    "type" : "text",
    "defaultValue" : "Submit",
    "bond" : "interpolation"
  }, {
    "label" : "Alignment",
    "name" : "alignment",
    "type" : "choice",
    "defaultValue" : "left",
    "choiceValues" : [ "left", "center", "right" ],
    "bond" : "constant"
  }, {
    "label" : "Style",
    "name" : "buttonStyle",
    "type" : "choice",
    "defaultValue" : "default",
    "choiceValues" : [ "default", "primary", "success", "info", "warning", "danger", "link" ],
    "bond" : "constant"
  }, {
    "label" : "Action",
    "name" : "action",
    "type" : "choice",
    "defaultValue" : "Submit task",
    "choiceValues" : [ {
      "value" : "Submit task",
      "label" : "Submit task",
      "group" : "Bonita BPM"
    }, {
      "value" : "Start process",
      "label" : "Start process",
      "group" : "Bonita BPM"
    }, {
      "value" : "POST",
      "label" : "POST",
      "group" : "HTTP request"
    }, {
      "value" : "PUT",
      "label" : "PUT",
      "group" : "HTTP request"
    }, {
      "value" : "GET",
      "label" : "GET",
      "group" : "HTTP request"
    }, {
      "value" : "DELETE",
      "label" : "DELETE",
      "group" : "HTTP request"
    }, {
      "value" : "Add to collection",
      "label" : "Add to collection",
      "group" : "Collection"
    }, {
      "value" : "Remove from collection",
      "label" : "Remove from collection",
      "group" : "Collection"
    } ],
    "bond" : "constant"
  }, {
    "label" : "URL to call",
    "name" : "url",
    "caption" : "Send data to this URL when the button is clicked",
    "help" : "URL used to perform the HTTP request when this button is clicked.",
    "showFor" : "['POST', 'PUT', 'GET', 'DELETE'].indexOf(properties.action.value) > -1",
    "type" : "text",
    "bond" : "interpolation"
  }, {
    "label" : "Data sent on click",
    "name" : "dataToSend",
    "help" : "Can be used to fulfill a contract",
    "showFor" : "properties.action.value === 'POST' || properties.action.value === 'PUT' || properties.action.value === 'Submit task' || properties.action.value ===  'Start process'",
    "type" : "text",
    "bond" : "expression"
  }, {
    "label" : "Successful response value",
    "name" : "dataFromSuccess",
    "help" : "Holds the response when the request is successful",
    "showFor" : "['POST', 'PUT', 'GET', 'DELETE', 'Submit task', 'Start process'].indexOf(properties.action.value) > -1",
    "type" : "text",
    "bond" : "variable"
  }, {
    "label" : "Failed response value",
    "name" : "dataFromError",
    "help" : "Holds the response when the request has failed",
    "showFor" : "['POST', 'PUT', 'GET', 'DELETE', 'Submit task', 'Start process'].indexOf(properties.action.value) > -1",
    "type" : "text",
    "bond" : "variable"
  }, {
    "label" : "Target URL on success",
    "name" : "targetUrlOnSuccess",
    "help" : "Next page to display, for applications. In the Portal, it is ignored as navigation is managed automatically",
    "showFor" : "['POST', 'PUT', 'DELETE', 'Submit task', 'Start process'].indexOf(properties.action.value) > -1",
    "type" : "text",
    "bond" : "interpolation"
  }, {
    "label" : "showModal",
    "name" : "showModal",
    "help" : "showModal",
    "type" : "text",
    "bond" : "variable"
  }, {
    "label" : "defaultOpen",
    "name" : "defaultOpen",
    "type" : "boolean",
    "defaultValue" : true,
    "bond" : "constant"
  } ],
  "assets" : [ ],
  "requiredModules" : [ ],
  "type" : "widget",
  "hasHelp" : false
}