{
  "designerVersion" : "1.4.34",
  "id" : "customDocumentManager",
  "name" : "documentManager",
  "lastUpdate" : 1553116298498,
  "template" : "<div ng-controller=\"documentManagerController as documentManager\" ng-attr-id=\"{{$id}}\">\n    <div color=\"white\" ng-init=\"documentManager.init(properties)\">\n    <!-- Listado de Documentos -->\n    <div ng-if=\"documentManager.showList == 1\">\n        <div>\n            <h2>{{documentManager.label}}</h2>\n        </div>\n\n        <div class=\"panel panel-default\" ng-if=\"documentManager.smartList.length > 0\">\n            <div class=\"panel-heading\">Archivos a solicitar</div>\n            <div class=\"panel-body\">\n                <table class=\"table table-condensed\">\n                    <thead>\n                        <tr>\n                            <th>Id</th>\n                            <th>Tipo</th>\n                            <th>Obligatorio</th>\n                        </tr>\n                    </thead>\n                    <tbody>\n                        <tr ng-repeat=\"f in documentManager.smartList\">\n                            <td> {{f.id}} </td>\n                            <td> {{f.documentTypeId}} </td>\n                            <td> {{f.isMandatory ? 'Si' : 'No'}} </td>\n                        </tr>\n                    </tbody>\n                </table>\n            </div>\n        </div>\n    </div>\n\n    <!-- Modo Carga de Documentos -->\n    <div ng-if=\"documentManager.typifierMode == 0\">\n\n        <div class=\"actions col-sm-2 text-right\" ng-if=\"documentManager.loadMode == 'descarga'\">\n            <button type=\"button\" class=\"btn btn-success\"\n                ng-click=\"documentManager.descarga(properties.documentId)\">\n                <span class=\"glyphicon glyphicon-download\"></span>\n            </button>\n        </div>\n\n        <div class=\"actions col-sm-2 text-right\" ng-if=\"documentManager.loadMode == 'visor'\">\n            <button type=\"button\" class=\"btn btn-success\"\n                ng-click=\"documentManager.downloadToPreview(properties.documentId)\">\n                <span class=\"glyphicon glyphicon-download\"></span>\n            </button>\n        </div>\n\n        <div ng-if=\"documentManager.loadMode == 'puntual' || documentManager.loadMode == 'tirilla'\">\n            <div class=\"panel-body\">\n                <div class=\"files-container\">\n                    <!-- Panel para mostrar errores globales -->\n                    <div class=\"panel panel-danger\" ng-if=\"documentManager.errorMessage\">\n                        <div class=\"panel-heading\">\n                            <pre class=\"files-error-message\">{{documentManager.errorMessage}}</pre>\n                        </div>\n                    </div>\n                </div>\n\n                <div class=\"files-container\"\n                    ng-if=\"documentManager.filesQuantity == 1 || documentManager.loadMode == 'tirilla'\">\n                    <button ng-if=\"!documentManager.selectedFiles[0]\" type=\"file\" class=\"btn btn-primary\"\n                        ngf-select=\"documentManager.selectFiles($files, $invalidFiles)\"\n                        accept=\"{{documentManager.accept}}\" ngf-max-size=\"{{documentManager.maxSize}}MB\">\n                        <span class=\"glyphicon glyphicon-plus\"></span> Agregar</button>\n                </div>\n\n                <div class=\"files-container\"\n                    ng-if=\"documentManager.filesQuantity > 1 && documentManager.loadMode == 'puntual'\">\n                    <div class=\"form-group\">\n                        <label>FE:</label>\n                        <div class=\"input-group date form_date\" data-date=\"\" data-date-format=\"dd/mm/yyyy\"\n                            ng-init=\"documentManager.initDatePicker()\">\n                            <input class=\"form-control\" type=\"text\" readonly\n                                ng-model=\"documentManager.dateExpedition\">\n                            <span class=\"input-group-addon\">\n                                <span class=\"glyphicon glyphicon-calendar\"></span>\n                            </span>\n                        </div>\n                    </div>\n                    <button type=\"file\" class=\"btn btn-primary\"\n                        ngf-select=\"documentManager.selectFiles($files, $invalidFiles)\" multiple\n                        accept=\"{{documentManager.accept}}\" ngf-max-size=\"{{documentManager.maxSize}}MB\">\n                        <span class=\"glyphicon glyphicon-plus\"></span> Agregar</button>\n                </div>\n            </div>\n\n            <div class=\"files-container\">\n                <div class=\"files-list\" ng-if=\"documentManager.selectedFiles.length > 0\">\n                    <div class=\"file-item\" ng-repeat=\"f in documentManager.selectedFiles\">\n                        <div class=\"detail row\">\n                            <div class=\"description col-sm-10\">\n                                <div class=\"name\">{{f.fileName ? f.fileName : f.name}}</div>\n                                <div class=\"size\">Tamaño: {{documentManager.getFileSize(f)}}</div>\n                            </div>\n                            <div class=\"actions col-sm-2 text-right\"\n                                ng-if=\"documentManager.loadMode != 'descarga'\">\n                                \n                                <button type=\"button\" class=\"btn btn-primary\"\n                                    ng-click=\"documentManager.upload(f); documentManager.actionUpload()\"\n                                    ng-if=\"(!f.progress || f.progress < 100)\">\n                                    <span class=\"glyphicon glyphicon-upload\"></span>\n                                </button>\n                                <button type=\"button\" class=\"btn btn-warning\" ng-click=\"abort(f)\"\n                                    ng-if=\"f.progress > 0 && f.progress < 100\">\n                                    <span class=\"glyphicon glyphicon-ban-circle\"></span>\n                                </button>\n                                <button type=\"button\" class=\"btn btn-danger\"\n                                    ng-click=\"documentManager.remove(f)\"\n                                    ng-if=\"(!f.progress || f.progress < 100)\">\n                                    <span class=\"glyphicon glyphicon-remove\"></span>\n                                </button>\n                                <button type=\"button\" class=\"btn btn-success\"\n                                    ng-if=\"f.progress == 100 && documentManager.loadMode\">\n                                    <span class=\"glyphicon glyphicon-ok\"></span>\n                                </button>\n                            </div>\n                        </div>\n\n                        <div class=\"progress\" ng-show=\"f.progress >= 0\">\n                            <div style=\"width:{{f.progress}}%\" ng-bind=\"f.progress + '%'\"></div>\n                        </div>\n                    </div>\n                </div>\n            </div>\n        </div>\n    </div>\n\n    <!-- Modo Tipificador -->\n    <div ng-if=\"documentManager.typifierMode == 1\">\n        <div class=\"files-container\">\n            <div class=\"files-list\" ng-if=\"documentManager.stripList.length > 0\">\n                <div class=\"file-item\" ng-repeat=\"f in documentManager.stripList\">\n                    <div class=\"detail row\">\n                        <div class=\"description col-sm-10\">\n                            <div class=\"name\">{{ f.fileName }}</div>\n                        </div>\n                        <div class=\"actions col-sm-2 text-right\">\n                            <button type=\"button\" class=\"btn btn-primary\" id=\"tipifyDocumentBtn\"\n                                ng-click=\"documentManager.openModalclassifyDocuments(f)\">\n                                <span class=\"glyphicon glyphicon-pencil\"></span>\n                            </button>\n                            <button type=\"button\" class=\"btn btn-success\" id=\"tipifyOkBtn\" ng-hide=\"true\">\n                                <span class=\"glyphicon glyphicon-ok\"></span>\n                            </button>\n                        </div>\n                    </div>\n                </div>\n            </div>\n        </div>\n\n        <!-- Modal Tipifacion de Documentos -->\n        <div class=\"modal fade\" id=\"classificationDocumentsModal\" tabindex=\"-1\" role=\"dialog\"\n            aria-labelledby=\"classificationDocumentsModalLabel\" aria-hidden=\"true\">\n            <div class=\"modal-dialog modal-lg\" role=\"document\">\n                <div class=\"modal-content\">\n                    <div class=\"modal-header\">\n                        <button type=\"button\" class=\"close padding-button\" data-dismiss=\"modal\"\n                            aria-label=\"Close\">\n                            <span aria-hidden=\"true\">&times;</span>\n                        </button>\n                        <h4 class=\"modal-title\" id=\"classificationDocumentsModalLabel\"> Documento </h4>\n                    </div>\n                    <div>\n                        <div class=\"modal-body\">\n                            <div class=\"padding-preview\">\n                                <div class=\"row panel panel-default\">\n                                    <div class=\"col-xs-12\">\n                                        <object ng-if=\"content\" data=\"{{content}}#toolbar=0\" type=\"application/pdf\" style=\"width: 100%; height: 400px;\">\n                                            <p>Su navegador no soporta archivos PDF\n                                                <a href=\"{{urlHrefFile}}\">Descarga el PDF</a>.</p>\n                                        </object>\n                                    </div>\n                                </div>\n                                <div class=\"row\">\n                                    <div class=\"col-xs-4 text-left\">\n                                        <a href=\"javascript:void(0)\" ng-click=\"documentManager.previewPage()\"\n                                            ng-if=\"documentManager.pdfPage.page > 1\">\n                                            &lt;&lt; Anterior\n                                        </a>\n                                    </div>\n                                    <div class=\"col-xs-4 text-center\">\n                                        Pagina {{documentManager.pdfPage.page}} de\n                                        {{documentManager.pdfPage.totalPages}}\n                                    </div>\n                                    <div class=\"col-xs-4 text-right\">\n                                        <a href=\"javascript:void(0)\" ng-click=\"documentManager.nextPage()\"\n                                            ng-if=\"documentManager.pdfPage.page < documentManager.pdfPage.totalPages\">\n                                            Siguiente &gt;&gt;\n                                        </a>\n                                    </div>\n                                </div>\n                            </div>\n\n                            <form name=\"classificationDocumentsForm\" novalidate>\n                                <div\n                                    ng-show=\"!documentManager.listAsigned[documentManager.pdfPage.page - 1].asigned\">\n                                    <div class=\"row\">\n                                        <div class=\"col-xs-12 text-left\">\n                                            <div class=\"form-group\">\n                                                <label for=\"sel1\">Tipo Documento:</label>\n                                                <select ng-model=\"documentManager.typeDocument\"\n                                                    class=\"form-control\" id=\"sel1\" required>\n                                                    <option ng-repeat=\"document in documentManager.smartList\"\n                                                        value=\"{{document.documentTypeId}}\">\n                                                        {{document.name}}</option>\n                                                </select>\n                                            </div>\n                                        </div>\n                                    </div>\n\n                                    <div class=\"row\">\n                                        <div class=\"col-xs-12 text-left\">\n                                            <div class=\"form-group\">\n                                                <label>Fecha de expedicion:</label>\n                                                <div class=\"input-group date form_date\" data-date=\"\"\n                                                    data-date-format=\"dd/mm/yyyy\"\n                                                    ng-init=\"documentManager.initDatePicker()\">\n                                                    <input class=\"form-control\" type=\"text\" readonly\n                                                        ng-model=\"documentManager.dateExpedition\">\n                                                    <span class=\"input-group-addon\">\n                                                        <span class=\"glyphicon glyphicon-calendar\"></span>\n                                                    </span>\n                                                </div>\n                                            </div>\n                                        </div>\n                                    </div>\n                                </div>\n\n                                <div\n                                    ng-if=\"documentManager.listAsigned[documentManager.pdfPage.page - 1].asigned\">\n                                    <div class=\"row\">\n                                        <div class=\"col-xs-12 text-left\">\n                                            <div class=\"form-group\">\n                                                <label for=\"sel1\">Tipo Documento:</label>\n                                                <select\n                                                    ng-model=\"documentManager.listAsigned[documentManager.pdfPage.page - 1].type\"\n                                                    class=\"form-control\" id=\"sel1\" required disabled>\n                                                    <option ng-repeat=\"document in documentManager.smartList\"\n                                                        value=\"{{document.documentTypeId}}\">\n                                                        {{document.name}}</option>\n                                                </select>\n                                            </div>\n                                        </div>\n                                    </div>\n                                </div>\n                            </form>\n                        </div>\n\n                        <div class=\"modal-footer\">\n                            <button type=\"submit\" class=\"btn btn-success\" ng-click=\"documentManager.modify()\"\n                                ng-if=\"documentManager.listAsigned[documentManager.pdfPage.page - 1].asigned\">Modificar</button>\n\n                            <button type=\"submit\" class=\"btn btn-success\" ng-click=\"documentManager.toAssign()\"\n                                ng-disabled=\"classificationDocumentsForm.$invalid\"\n                                ng-if=\"!documentManager.listAsigned[documentManager.pdfPage.page - 1].asigned\">Asignar</button>\n\n                            <button type=\"submit\" class=\"btn btn-primary\" ng-click=\"documentManager.typifying()\"\n                                ng-if=\"documentManager.typify\">Tipificar</button>\n\n                            <button type=\"button\" class=\"btn btn-primary\" data-dismiss=\"modal\">Cerrar</button>\n                        </div>\n                    </div>\n                </div>\n            </div>\n        </div>\n    </div>\n\n    <!-- Modo Visualizador -->\n    <div ng-if=\"documentManager.loadMode == 'botonConsulta'\">\n\n        <div class=\"actions col-sm-2 text-right\">\n            <button type=\"button\" class=\"btn btn-success\"\n                ng-click=\"documentManager.showListFunction(properties)\">\n                Consulta Documentos <span class=\"glyphicon glyphicon-eye-open\"></span>\n            </button>\n        </div>\n\n        <!-- Modal Lista de Documentos -->\n        <div class=\"modal fade\" id=\"listDocumentsModal\" tabindex=\"-1\" role=\"dialog\"\n            aria-labelledby=\"listDocumentsModalLabel\" aria-hidden=\"true\">\n\n            <div class=\"modal-dialog modal-lg\">\n                <div class=\"modal-content\">\n                    <div class=\"modal-header\">\n                        <button type=\"button\" class=\"close padding-button\" data-dismiss=\"modal\"\n                            aria-label=\"Close\">\n                            <span aria-hidden=\"true\">&times;</span>\n                        </button>\n                        <h2 class=\"modal-title\" id=\"listDocumentsModal\"> Lista de Documentos </h2>\n                    </div>\n                    <div class=\"modal-header\">\n                        <h3 class=\"modal-title text-center\"> Documentos cargados </h3>\n                        <div class=\"modal-body\">\n                            <div class=\"description col-sm-7\">\n                                <h5 class=\"modal-title\"><b> Documento</b> </h5>\n                            </div>\n                            <div class=\"description col-sm-2 text-center\">\n                                <h5 class=\"modal-title\"><b> ¿Obligatorio? </b></h5>\n                            </div>\n                            <div class=\"description col-sm-2 text-center\">\n                                <h5 class=\"modal-title\"><b> ¿Cargado? </b></h5>\n                            </div>\n                        </div>\n                        </br>\n                        <div class=\"files-container\">\n                            <div class=\"files-list\" ng-if=\"documentManager.smartList.uploaded.length > 0\">\n                                <div class=\"file-item\" ng-repeat=\"f in documentManager.smartList.uploaded\">\n                                    <div class=\"detail row\">\n                                        <div class=\"description col-sm-7\">\n                                            <div class=\"name\">{{ f.name }} </div>\n                                        </div>\n                                        <div class=\"description col-sm-2 text-center\" ng-if=\"f.isMandatory\">\n                                            Si\n                                        </div>\n                                        <div class=\"description col-sm-2 text-center\" ng-if=\"!f.isMandatory\">\n                                            No\n                                        </div>\n                                        <div class=\"description col-sm-2 text-center\"\n                                            ng-if=\"f.uploadedFile.length > 0\">\n                                            Si\n                                        </div>\n                                        <div class=\"description col-sm-2 text-center\"\n                                            ng-if=\"f.uploadedFile.length == 0\">\n                                            No\n                                        </div>\n                                        <div class=\"actions col-sm-1 text-right\"\n                                            ng-hide=\"!(f.uploadedFile.length > 0)\">\n                                            <button type=\"button\" class=\"btn btn-primary\"\n                                                ng-click=\"documentManager.openModalclassifyDocumentsToShow(f.uploadedFile[f.uploadedFile.length-1].fileMetadata.id)\">\n                                                <span class=\"glyphicon glyphicon-pencil\"></span>\n                                            </button>\n                                        </div>\n                                    </div>\n                                </div>\n                            </div>\n                        </div>\n                    </div>\n                    <div class=\"modal-header\">\n                        <h3 class=\"modal-title text-center\"> Documentos Generados </h3>\n                        <div class=\"modal-body\">\n                            <div class=\"description col-sm-7\">\n                                <h5 class=\"modal-title\"><b> Documento</b> </h5>\n                            </div>\n                            <div class=\"description col-sm-2 text-center\">\n                                <h5 class=\"modal-title\"><b> ¿Obligatorio? </b></h5>\n                            </div>\n                            <div class=\"description col-sm-2 text-center\">\n                                <h5 class=\"modal-title\"><b> ¿Cargado? </b></h5>\n                            </div>\n                        </div>\n                        <br>\n                        <div class=\"files-container\">\n                            <div class=\"files-list\" ng-if=\"documentManager.smartList.autogenerated.length > 0\">\n                                <div class=\"file-item\" ng-repeat=\"f in documentManager.smartList.autogenerated\">\n                                    <div class=\"detail row\">\n                                        <div class=\"description col-sm-7\">\n                                            <div class=\"name\">{{ f.name }} </div>\n                                        </div>\n                                        <div class=\"description col-sm-2 text-center\" ng-if=\"f.isMandatory\">\n                                            Si\n                                        </div>\n                                        <div class=\"description col-sm-2 text-center\" ng-if=\"!f.isMandatory\">\n                                            No\n                                        </div>\n                                        <div class=\"description col-sm-2 text-center\"\n                                            ng-if=\"f.uploadedFile.length > 0\">\n                                            Si\n                                        </div>\n                                        <div class=\"description col-sm-2 text-center\"\n                                            ng-if=\"f.uploadedFile.length == 0\">\n                                            No\n                                        </div>\n                                        <div class=\"actions col-sm-1 text-right\"\n                                            ng-hide=\"!(f.uploadedFile.length > 0)\">\n\n                                            <button type=\"button\" class=\"btn btn-primary\"\n                                                ng-click=\"documentManager.openModalclassifyDocumentsToShow(f.uploadedFile[f.uploadedFile.length-1].fileMetadata.id)\">\n                                                <span class=\"glyphicon glyphicon-pencil\"></span>\n                                            </button>\n                                        </div>\n                                    </div>\n                                </div>\n                            </div>\n                        </div>\n                    </div>\n                </div>\n            </div>\n        </div>\n\n        <!-- Modal Visualizador de Documentos -->\n        <div class=\"modal fade\" id=\"classificationDocumentsModal\" tabindex=\"-1\" role=\"dialog\"\n            aria-labelledby=\"classificationDocumentsModalLabel\" aria-hidden=\"true\">\n            <div class=\"modal-dialog modal-lg\" role=\"document\">\n                <div class=\"modal-content\">\n                    <div class=\"modal-header\">\n                        <button type=\"button\" class=\"close padding-button\" data-dismiss=\"modal\"\n                            aria-label=\"Close\">\n                            <span aria-hidden=\"true\">&times;</span>\n                        </button>\n                        <h4 class=\"modal-title\" id=\"classificationDocumentsModalLabel\"> Documento </h4>\n                    </div>\n                    <div>\n                        <div class=\"modal-body\">\n                            <div class=\"padding-preview\">\n                                <div class=\"row panel panel-default\">\n                                    <div class=\"col-xs-12\">\n                                        <object ng-if=\"content\" data=\"{{content}}#toolbar=0\" type=\"application/pdf\" style=\"width: 100%; height: 400px;\">\n                                            <p>Su navegador no soporta archivos PDF\n                                                <a href=\"{{urlHrefFile}}\">Descarga el PDF</a>.</p>\n                                        </object>\n                                    </div>\n                                </div>\n                            </div>\n                        </div>\n\n                        <div class=\"modal-footer\">\n                            <button type=\"button\" class=\"btn btn-primary\" data-dismiss=\"modal\">Cerrar</button>\n                        </div>\n                    </div>\n                </div>\n            </div>\n        </div>\n    </div>\n\n    <div ng-if=\"documentManager.loadMode == 'visor'\">\n\n        <div class=\"actions col-sm-1 text-right\" ng-hide=\"!(documentManager.processId.uploadedFile.length > 0)\">\n            <button type=\"button\" class=\"btn btn-primary\"\n                ng-click=\"documentManager.openModalclassifyDocumentsToShow(documentManager.processId.uploadedFile[documentManager.processId.uploadedFile.length-1].fileMetadata.id)\">\n                <span class=\"glyphicon glyphicon-pencil\"></span>\n            </button>\n        </div>\n\n\n        <!-- Modal Visualizador de Documentos -->\n        <div class=\"modal fade\" id=\"classificationDocumentsModalToShow\" tabindex=\"-1\" role=\"dialog\"\n            aria-labelledby=\"classificationDocumentsModalLabel\" aria-hidden=\"true\">\n            <div class=\"modal-dialog modal-lg\" role=\"document\">\n                <div class=\"modal-content\">\n                    <div class=\"modal-header\">\n                        <button type=\"button\" class=\"close padding-button\" data-dismiss=\"modal\"\n                            aria-label=\"Close\">\n                            <span aria-hidden=\"true\">&times;</span>\n                        </button>\n                        <h4 class=\"modal-title\" id=\"classificationDocumentsModalLabel\"> Documento </h4>\n                    </div>\n                    <div>\n                        <div class=\"modal-body\">\n                            <div class=\"padding-preview\">\n                                <div class=\"row panel panel-default\">\n                                    <div class=\"col-xs-12\">\n                                        <object ng-if=\"content\" data=\"{{content}}#toolbar=0\" type=\"application/pdf\" style=\"width: 100%; height: 400px;\">\n                                            <p>Su navegador no soporta archivos PDF\n                                                <a href=\"{{urlHrefFile}}\">Descarga el PDF</a>.</p>\n                                        </object>\n                                    </div>\n                                </div>\n                            </div>\n                        </div>\n\n                        <div class=\"modal-footer\">\n                            <button type=\"button\" class=\"btn btn-primary\" data-dismiss=\"modal\">Cerrar</button>\n                        </div>\n                    </div>\n                </div>\n            </div>\n        </div>\n    </div>\n\n</div>\n</div>",
  "controller" : "function ($scope) {\n\n}\n\n",
  "custom" : true,
  "properties" : [ {
    "label" : "filesQuantity",
    "name" : "filesQuantity",
    "help" : "filesQuantity",
    "type" : "text",
    "bond" : "expression"
  }, {
    "label" : "accept",
    "name" : "accept",
    "help" : "accept",
    "type" : "text",
    "bond" : "expression"
  }, {
    "label" : "maxSize",
    "name" : "maxSize",
    "help" : "maxSize",
    "type" : "text",
    "bond" : "expression"
  }, {
    "label" : "label",
    "name" : "label",
    "help" : "label",
    "type" : "text",
    "bond" : "expression"
  }, {
    "label" : "smartList",
    "name" : "smartList",
    "help" : "smartList",
    "type" : "text",
    "bond" : "expression"
  }, {
    "label" : "USERGT",
    "name" : "USERGT",
    "help" : "USERGT",
    "type" : "text",
    "bond" : "expression"
  }, {
    "label" : "AAPGT",
    "name" : "AAPGT",
    "help" : "AAPGT",
    "type" : "text",
    "bond" : "expression"
  }, {
    "label" : "ivticketService",
    "name" : "ivticketService",
    "help" : "ivticketService",
    "type" : "text",
    "bond" : "expression"
  }, {
    "label" : "loadMode",
    "name" : "loadMode",
    "help" : "loadMode",
    "type" : "text",
    "bond" : "expression"
  }, {
    "label" : "typifierMode",
    "name" : "typifierMode",
    "help" : "typifierMode",
    "type" : "text",
    "bond" : "expression"
  }, {
    "label" : "documentMetadata",
    "name" : "documentMetadata",
    "help" : "documentMetadata",
    "type" : "text",
    "bond" : "expression"
  }, {
    "label" : "logicalFolderMetadata",
    "name" : "logicalFolderMetadata",
    "help" : "logicalFolderMetadata",
    "type" : "text",
    "bond" : "expression"
  }, {
    "label" : "processId",
    "name" : "processId",
    "help" : "processId",
    "type" : "text",
    "bond" : "expression"
  }, {
    "label" : "userType",
    "name" : "userType",
    "help" : "userType",
    "type" : "text",
    "bond" : "expression"
  }, {
    "label" : "userValue",
    "name" : "userValue",
    "help" : "userValue",
    "type" : "text",
    "bond" : "expression"
  }, {
    "label" : "baseUrlGt",
    "name" : "baseUrlGt",
    "help" : "baseUrlGt",
    "type" : "text",
    "bond" : "expression"
  }, {
    "label" : "baseUrlWas",
    "name" : "baseUrlWas",
    "help" : "baseUrlWas",
    "type" : "text",
    "bond" : "expression"
  }, {
    "label" : "baseUrlAsoD",
    "name" : "baseUrlAsoD",
    "help" : "baseUrlAsoD",
    "type" : "text",
    "bond" : "expression"
  }, {
    "label" : "ChName",
    "name" : "ChName",
    "help" : "ChName",
    "type" : "text",
    "bond" : "expression"
  }, {
    "label" : "ChPass",
    "name" : "ChPass",
    "help" : "ChPass",
    "type" : "text",
    "bond" : "expression"
  }, {
    "label" : "documentId",
    "name" : "documentId",
    "help" : "documentId",
    "type" : "text",
    "bond" : "expression"
  }, {
    "label" : "showList",
    "name" : "showList",
    "help" : "showList",
    "type" : "text",
    "bond" : "expression"
  }, {
    "label" : "processedSmartList",
    "name" : "processedSmartList",
    "help" : "processedSmartList",
    "type" : "text",
    "bond" : "variable"
  }, {
    "label" : "autogeneratedList",
    "name" : "autogeneratedList",
    "help" : "autogeneratedList",
    "type" : "text",
    "bond" : "expression"
  }, {
    "label" : "Tirillas cargadas",
    "name" : "stripList",
    "help" : "Listado de tirillas cargadas",
    "type" : "text",
    "bond" : "variable"
  }, {
    "label" : "widgetResponse",
    "name" : "widgetResponse",
    "help" : "Different response depending on the use case",
    "type" : "text",
    "bond" : "variable"
  }, {
    "label" : "actionUpload",
    "name" : "actionUpload",
    "type" : "text",
    "bond" : "variable"
  } ],
  "assets" : [ {
    "id" : "5946158f-8303-4096-8d1e-b891f8cac97d",
    "name" : "bootstrap.js",
    "type" : "js",
    "order" : 2,
    "external" : false
  }, {
    "id" : "c268c745-5c77-431b-9227-da875d2892d9",
    "name" : "style.css",
    "type" : "css",
    "order" : 12,
    "external" : false
  }, {
    "id" : "01ed200c-d55b-41a5-a705-d9d061714a42",
    "name" : "ng-file-upload-shim.min.js",
    "type" : "js",
    "order" : 5,
    "external" : false
  }, {
    "id" : "2d64d7b7-3775-40c9-992e-99d24f59700f",
    "name" : "documentManagerController.js",
    "type" : "js",
    "order" : 7,
    "external" : false
  }, {
    "id" : "bafd0399-6355-4b0d-84cd-3bf0559b3f1c",
    "name" : "ng-file-upload.min.js",
    "type" : "js",
    "order" : 4,
    "external" : false
  }, {
    "id" : "72612472-9cc6-459a-ab35-9d51910b6879",
    "name" : "bootstrap.css",
    "type" : "css",
    "order" : 10,
    "external" : false
  }, {
    "id" : "d0fb5926-7f43-43d6-9bc9-7141696b216d",
    "name" : "jquery-3.3.1.slim.min.js",
    "type" : "js",
    "order" : 1,
    "external" : false
  }, {
    "id" : "484105e6-ba94-46a3-a64e-34b1afec4092",
    "name" : "bootstrap-datetimepicker.js",
    "type" : "js",
    "order" : 3,
    "external" : false
  }, {
    "id" : "c36d4e9e-95a5-4afb-bdae-30d4b17286a8",
    "name" : "bootstrap-datetimepicker.css",
    "type" : "css",
    "order" : 11,
    "external" : false
  }, {
    "id" : "596de709-38e5-4a8c-b00a-d8486c18f5c5",
    "name" : "bootstrap-datetimepicker.es.js",
    "type" : "js",
    "order" : 6,
    "external" : false
  }, {
    "id" : "5c943038-05bf-4f2b-92bc-74b11c5499dc",
    "name" : "appService.js",
    "type" : "js",
    "order" : 8,
    "external" : false
  } ],
  "requiredModules" : [ "ngFileUpload" ],
  "type" : "widget",
  "hasHelp" : false
}